(module CAPAE830X1050N (layer F.Cu) (tedit 5FD0DB16)
  (descr 8x10.2)
  (tags "Capacitor Polarised")
  (attr smd)
  (fp_text reference C** (at -4.445 -5.715) (layer F.SilkS)
    (effects (font (size 1.27 1.27) (thickness 0.254)))
  )
  (fp_text value CAPAE830X1050N (at 0 5.715) (layer F.SilkS) hide
    (effects (font (size 1.27 1.27) (thickness 0.254)))
  )
  (fp_line (start -6.3 -4.75) (end 6.3 -4.75) (layer F.CrtYd) (width 0.05))
  (fp_line (start 6.3 -4.75) (end 6.3 4.75) (layer F.CrtYd) (width 0.05))
  (fp_line (start 6.3 4.75) (end -6.3 4.75) (layer F.CrtYd) (width 0.05))
  (fp_line (start -6.3 4.75) (end -6.3 -4.75) (layer F.CrtYd) (width 0.05))
  (fp_line (start 4.15 -4.15) (end -2.075 -4.15) (layer F.Fab) (width 0.1))
  (fp_line (start -2.075 -4.15) (end -4.15 -2.075) (layer F.Fab) (width 0.1))
  (fp_line (start -4.15 -2.075) (end -4.15 2.075) (layer F.Fab) (width 0.1))
  (fp_line (start -4.15 2.075) (end -2.075 4.15) (layer F.Fab) (width 0.1))
  (fp_line (start -2.075 4.15) (end 4.15 4.15) (layer F.Fab) (width 0.1))
  (fp_line (start 4.15 4.15) (end 4.15 -4.15) (layer F.Fab) (width 0.1))
  (fp_line (start -5.8 -4.15) (end 4.15 -4.15) (layer F.SilkS) (width 0.2))
  (fp_line (start -2.075 4.15) (end 4.15 4.15) (layer F.SilkS) (width 0.2))
  (fp_text user %R (at 0 0) (layer F.Fab)
    (effects (font (size 1.27 1.27) (thickness 0.254)))
  )
  (pad 1 smd rect (at -3.7 0 90) (size 2.1 4.2) (layers F.Cu F.Paste F.Mask))
  (pad 2 smd rect (at 3.7 0 90) (size 2.1 4.2) (layers F.Cu F.Paste F.Mask))
  (model ${OneDrive}/CAD_LIB/KICAD/SamacSys_Parts.3dshapes/EEE1HA330AP.stp
    (at (xyz 0 0 0))
    (scale (xyz 1 1 1))
    (rotate (xyz 0 0 0))
  )
)
