(module MAU100-DUAL (layer F.Cu) (tedit 5FCDF919)
  (descr "MISMAX MAU100 Serias")
  (tags "dc-dc recom buck sip-4 pitch 2.54mm")
  (fp_text reference REF** (at 0 -2.54) (layer F.SilkS)
    (effects (font (size 1 1) (thickness 0.15)))
  )
  (fp_text value MAU100-DUAL (at 3.88 3.49 180) (layer F.Fab)
    (effects (font (size 1 1) (thickness 0.15)))
  )
  (fp_text user %R (at 3.81 -2.25) (layer F.Fab)
    (effects (font (size 1 1) (thickness 0.15)))
  )
  (fp_line (start -2 -1.2) (end 17.7 -1.2) (layer F.Fab) (width 0.1))
  (fp_line (start 17.7 -1.2) (end 17.7 5.9) (layer F.Fab) (width 0.1))
  (fp_line (start 17.7 5.9) (end -2 5.9) (layer F.Fab) (width 0.1))
  (fp_line (start -1 -1.2) (end -2 -0.1) (layer F.Fab) (width 0.1))
  (fp_line (start -2 5.9) (end -2 -1.2) (layer F.Fab) (width 0.1))
  (fp_line (start -2.1 -1.3) (end 17.8 -1.3) (layer F.SilkS) (width 0.12))
  (fp_line (start -2.1 6) (end 17.8 6) (layer F.SilkS) (width 0.12))
  (fp_line (start -2.1 -1.3) (end -2.1 6) (layer F.SilkS) (width 0.12))
  (fp_line (start 17.8 -1.3) (end 17.8 6) (layer F.SilkS) (width 0.12))
  (fp_line (start -2.25 -1.45) (end -2.25 6.15) (layer F.CrtYd) (width 0.05))
  (fp_line (start -2.25 6.15) (end 17.95 6.15) (layer F.CrtYd) (width 0.05))
  (fp_line (start 17.95 -1.45) (end 17.95 6.15) (layer F.CrtYd) (width 0.05))
  (fp_line (start 17.95 -1.45) (end -2.25 -1.45) (layer F.CrtYd) (width 0.05))
  (pad 5 thru_hole oval (at 10.16 0) (size 1.5 2.3) (drill 1) (layers *.Cu *.Mask))
  (pad 4 thru_hole oval (at 7.62 0) (size 1.5 2.3) (drill 1) (layers *.Cu *.Mask))
  (pad 2 thru_hole oval (at 2.54 0) (size 1.5 2.3) (drill 1) (layers *.Cu *.Mask))
  (pad 1 thru_hole rect (at 0 0) (size 1.5 2.3) (drill 1) (layers *.Cu *.Mask))
  (pad 6 thru_hole oval (at 12.7 0) (size 1.5 2.3) (drill 1) (layers *.Cu *.Mask))
  (model ${KISYS3DMOD}/Converters_DCDC_ACDC.3dshapes/DCDC-Conv_RECOM_R-78S-0.1.wrl
    (at (xyz 0 0 0))
    (scale (xyz 1 1 1))
    (rotate (xyz 0 0 0))
  )
)
