(module R_YVY_L6.3mm_D2.5mm_P7.62mm_Horizontal (layer F.Cu) (tedit 5FCB3FD6)
  (descr "Resistor, Axial_DIN0207 series, Axial, Horizontal, pin pitch=7.62mm, 0.25W = 1/4W, length*diameter=6.3*2.5mm^2, http://cdn-reichelt.de/documents/datenblatt/B400/1_4W%23YAG.pdf")
  (tags "Resistor Axial_DIN0207 series Axial Horizontal pin pitch 7.62mm 0.25W = 1/4W length 6.3mm diameter 2.5mm")
  (fp_text reference REF** (at 3.81 -2.31) (layer F.SilkS)
    (effects (font (size 1 1) (thickness 0.15)))
  )
  (fp_text value R_YVY_L6.3mm_D2.5mm_P7.62mm_Horizontal (at 3.81 2.31) (layer F.Fab)
    (effects (font (size 1 1) (thickness 0.15)))
  )
  (fp_line (start 0.66 -1.25) (end 0.66 1.25) (layer F.Fab) (width 0.1))
  (fp_line (start 0.66 1.25) (end 6.96 1.25) (layer F.Fab) (width 0.1))
  (fp_line (start 6.96 1.25) (end 6.96 -1.25) (layer F.Fab) (width 0.1))
  (fp_line (start 6.96 -1.25) (end 0.66 -1.25) (layer F.Fab) (width 0.1))
  (fp_line (start 0 0) (end 0.66 0) (layer F.Fab) (width 0.1))
  (fp_line (start 7.62 0) (end 6.96 0) (layer F.Fab) (width 0.1))
  (fp_line (start 0.6 -0.98) (end 0.6 -1.31) (layer F.SilkS) (width 0.12))
  (fp_line (start 0.6 -1.31) (end 7.02 -1.31) (layer F.SilkS) (width 0.12))
  (fp_line (start 7.02 -1.31) (end 7.02 -0.98) (layer F.SilkS) (width 0.12))
  (fp_line (start 0.6 0.98) (end 0.6 1.31) (layer F.SilkS) (width 0.12))
  (fp_line (start 0.6 1.31) (end 7.02 1.31) (layer F.SilkS) (width 0.12))
  (fp_line (start 7.02 1.31) (end 7.02 0.98) (layer F.SilkS) (width 0.12))
  (fp_line (start -1.05 -1.58) (end -1.05 1.58) (layer F.CrtYd) (width 0.05))
  (fp_line (start -1.05 1.58) (end 8.7 1.58) (layer F.CrtYd) (width 0.05))
  (fp_line (start 8.7 1.58) (end 8.7 -1.58) (layer F.CrtYd) (width 0.05))
  (fp_line (start 8.7 -1.58) (end -1.05 -1.58) (layer F.CrtYd) (width 0.05))
  (pad 2 thru_hole oval (at 7.62 0) (size 1.6 1.6) (drill 0.8) (layers *.Cu *.Mask))
  (pad 1 thru_hole circle (at 0 0) (size 1.6 1.6) (drill 0.8) (layers *.Cu *.Mask))
  (model ${KISYS3DMOD}/Resistors_THT.3dshapes/R_Axial_DIN0207_L6.3mm_D2.5mm_P7.62mm_Horizontal.wrl
    (at (xyz 0 0 0))
    (scale (xyz 0.393701 0.393701 0.393701))
    (rotate (xyz 0 0 0))
  )
)
